{
  "defaults": {
    "timeout": 10000
  },
  "urls": [
    "https://2024.boosterconf.no/",
    "https://2024.boosterconf.no/program/",
    "https://2024.boosterconf.no/speaker/"
  ],
  "runners": [
    "axe"
  ]
}
